<svg xmlns="http://www.w3.org/2000/svg" xmlns:xlink="http://www.w3.org/1999/xlink" width="900" height="120" viewBox="0 0 900 120">
  <defs>
    <clipPath id="clip-path">
      <rect id="Rectangle" width="40" height="60" transform="translate(46.432 -0.396)" fill="#fff"/>
    </clipPath>
    <clipPath id="clip-path-2">
      <rect width="310.577" height="62.012" fill="none"/>
    </clipPath>
    <clipPath id="clip-path-3">
      <rect id="Rectangle-2" data-name="Rectangle" width="40" height="60" transform="translate(0.432 -0.396)" fill="#fff"/>
    </clipPath>
  </defs>
  <g id="警報" transform="translate(-1079.176 -803.999)">
    <rect id="Rectangle_3" data-name="Rectangle 3" width="900" height="120" transform="translate(1079.176 803.999)" opacity="0.7"/>
    <g id="Rectangle_3-2" data-name="Rectangle 3" transform="translate(1079.176 803.999)" fill="none" stroke="#e42626" stroke-width="3">
      <rect width="900" height="120" stroke="none"/>
      <rect x="1.5" y="1.5" width="897" height="117" fill="none"/>
    </g>
    <rect id="Rectangle_3-3" data-name="Rectangle 3" width="9" height="9" transform="translate(1967.176 806.999)" fill="#e42626"/>
    <rect id="Rectangle_3-4" data-name="Rectangle 3" width="9" height="9" transform="translate(1967.176 911.999)" fill="#e42626"/>
    <rect id="Rectangle_4" data-name="Rectangle 4" width="9" height="9" transform="translate(1082.176 806.999)" fill="#e42626"/>
    <rect id="Rectangle_4-2" data-name="Rectangle 4" width="9" height="9" transform="translate(1082.176 911.999)" fill="#e42626"/>
    <g id="Mask_Group_2" data-name="Mask Group 2" transform="translate(1862.744 834.395)" clip-path="url(#clip-path)">
      <g id="Repeat_Grid_2" data-name="Repeat Grid 2" transform="translate(-36.243 -0.38)" clip-path="url(#clip-path-2)">
        <g transform="translate(-1214 -1004)">
          <path id="Rectangle-3" data-name="Rectangle" d="M10,0h8L-12,30h-8Z" transform="translate(1249 1004)" fill="#e42626"/>
        </g>
        <g transform="translate(-1200 -1004)">
          <path id="Rectangle-4" data-name="Rectangle" d="M10,0h8L-12,30h-8Z" transform="translate(1249 1004)" fill="#e42626"/>
        </g>
        <g transform="translate(-1186 -1004)">
          <path id="Rectangle-5" data-name="Rectangle" d="M10,0h8L-12,30h-8Z" transform="translate(1249 1004)" fill="#e42626"/>
        </g>
        <g transform="translate(-1172 -1004)">
          <path id="Rectangle-6" data-name="Rectangle" d="M10,0h8L-12,30h-8Z" transform="translate(1249 1004)" fill="#e42626"/>
        </g>
        <g transform="translate(-1158 -1004)">
          <path id="Rectangle-7" data-name="Rectangle" d="M10,0h8L-12,30h-8Z" transform="translate(1249 1004)" fill="#e42626"/>
        </g>
        <g transform="translate(-1144 -1004)">
          <path id="Rectangle-8" data-name="Rectangle" d="M10,0h8L-12,30h-8Z" transform="translate(1249 1004)" fill="#e42626"/>
        </g>
        <g transform="translate(-1130 -1004)">
          <path id="Rectangle-9" data-name="Rectangle" d="M10,0h8L-12,30h-8Z" transform="translate(1249 1004)" fill="#e42626"/>
        </g>
        <g transform="translate(-1116 -1004)">
          <path id="Rectangle-10" data-name="Rectangle" d="M10,0h8L-12,30h-8Z" transform="translate(1249 1004)" fill="#e42626"/>
        </g>
        <g transform="translate(-1102 -1004)">
          <path id="Rectangle-11" data-name="Rectangle" d="M10,0h8L-12,30h-8Z" transform="translate(1249 1004)" fill="#e42626"/>
        </g>
        <g transform="translate(-1088 -1004)">
          <path id="Rectangle-12" data-name="Rectangle" d="M10,0h8L-12,30h-8Z" transform="translate(1249 1004)" fill="#e42626"/>
        </g>
        <g transform="translate(-1074 -1004)">
          <path id="Rectangle-13" data-name="Rectangle" d="M10,0h8L-12,30h-8Z" transform="translate(1249 1004)" fill="#e42626"/>
        </g>
        <g transform="translate(-1060 -1004)">
          <path id="Rectangle-14" data-name="Rectangle" d="M10,0h8L-12,30h-8Z" transform="translate(1249 1004)" fill="#e42626"/>
        </g>
        <g transform="translate(-1046 -1004)">
          <path id="Rectangle-15" data-name="Rectangle" d="M10,0h8L-12,30h-8Z" transform="translate(1249 1004)" fill="#e42626"/>
        </g>
        <g transform="translate(-1032 -1004)">
          <path id="Rectangle-16" data-name="Rectangle" d="M10,0h8L-12,30h-8Z" transform="translate(1249 1004)" fill="#e42626"/>
        </g>
        <g transform="translate(-1018 -1004)">
          <path id="Rectangle-17" data-name="Rectangle" d="M10,0h8L-12,30h-8Z" transform="translate(1249 1004)" fill="#e42626"/>
        </g>
        <g transform="translate(-1004 -1004)">
          <path id="Rectangle-18" data-name="Rectangle" d="M10,0h8L-12,30h-8Z" transform="translate(1249 1004)" fill="#e42626"/>
        </g>
        <g transform="translate(-990 -1004)">
          <path id="Rectangle-19" data-name="Rectangle" d="M10,0h8L-12,30h-8Z" transform="translate(1249 1004)" fill="#e42626"/>
        </g>
        <g transform="translate(-976 -1004)">
          <path id="Rectangle-20" data-name="Rectangle" d="M10,0h8L-12,30h-8Z" transform="translate(1249 1004)" fill="#e42626"/>
        </g>
        <g transform="translate(-962 -1004)">
          <path id="Rectangle-21" data-name="Rectangle" d="M10,0h8L-12,30h-8Z" transform="translate(1249 1004)" fill="#e42626"/>
        </g>
        <g transform="translate(-948 -1004)">
          <path id="Rectangle-22" data-name="Rectangle" d="M10,0h8L-12,30h-8Z" transform="translate(1249 1004)" fill="#e42626"/>
        </g>
        <g transform="translate(-934 -1004)">
          <path id="Rectangle-23" data-name="Rectangle" d="M10,0h8L-12,30h-8Z" transform="translate(1249 1004)" fill="#e42626"/>
        </g>
        <g transform="translate(-920 -1004)">
          <path id="Rectangle-24" data-name="Rectangle" d="M10,0h8L-12,30h-8Z" transform="translate(1249 1004)" fill="#e42626"/>
        </g>
        <g transform="translate(-906 -1004)">
          <path id="Rectangle-25" data-name="Rectangle" d="M10,0h8L-12,30h-8Z" transform="translate(1249 1004)" fill="#e42626"/>
        </g>
        <g transform="translate(-1214 -976)">
          <path id="Rectangle-26" data-name="Rectangle" d="M10,0h8L-12,30h-8Z" transform="translate(1249 1004)" fill="#e42626"/>
        </g>
        <g transform="translate(-1200 -976)">
          <path id="Rectangle-27" data-name="Rectangle" d="M10,0h8L-12,30h-8Z" transform="translate(1249 1004)" fill="#e42626"/>
        </g>
        <g transform="translate(-1186 -976)">
          <path id="Rectangle-28" data-name="Rectangle" d="M10,0h8L-12,30h-8Z" transform="translate(1249 1004)" fill="#e42626"/>
        </g>
        <g transform="translate(-1172 -976)">
          <path id="Rectangle-29" data-name="Rectangle" d="M10,0h8L-12,30h-8Z" transform="translate(1249 1004)" fill="#e42626"/>
        </g>
        <g transform="translate(-1158 -976)">
          <path id="Rectangle-30" data-name="Rectangle" d="M10,0h8L-12,30h-8Z" transform="translate(1249 1004)" fill="#e42626"/>
        </g>
        <g transform="translate(-1144 -976)">
          <path id="Rectangle-31" data-name="Rectangle" d="M10,0h8L-12,30h-8Z" transform="translate(1249 1004)" fill="#e42626"/>
        </g>
        <g transform="translate(-1130 -976)">
          <path id="Rectangle-32" data-name="Rectangle" d="M10,0h8L-12,30h-8Z" transform="translate(1249 1004)" fill="#e42626"/>
        </g>
        <g transform="translate(-1116 -976)">
          <path id="Rectangle-33" data-name="Rectangle" d="M10,0h8L-12,30h-8Z" transform="translate(1249 1004)" fill="#e42626"/>
        </g>
        <g transform="translate(-1102 -976)">
          <path id="Rectangle-34" data-name="Rectangle" d="M10,0h8L-12,30h-8Z" transform="translate(1249 1004)" fill="#e42626"/>
        </g>
        <g transform="translate(-1088 -976)">
          <path id="Rectangle-35" data-name="Rectangle" d="M10,0h8L-12,30h-8Z" transform="translate(1249 1004)" fill="#e42626"/>
        </g>
        <g transform="translate(-1074 -976)">
          <path id="Rectangle-36" data-name="Rectangle" d="M10,0h8L-12,30h-8Z" transform="translate(1249 1004)" fill="#e42626"/>
        </g>
        <g transform="translate(-1060 -976)">
          <path id="Rectangle-37" data-name="Rectangle" d="M10,0h8L-12,30h-8Z" transform="translate(1249 1004)" fill="#e42626"/>
        </g>
        <g transform="translate(-1046 -976)">
          <path id="Rectangle-38" data-name="Rectangle" d="M10,0h8L-12,30h-8Z" transform="translate(1249 1004)" fill="#e42626"/>
        </g>
        <g transform="translate(-1032 -976)">
          <path id="Rectangle-39" data-name="Rectangle" d="M10,0h8L-12,30h-8Z" transform="translate(1249 1004)" fill="#e42626"/>
        </g>
        <g transform="translate(-1018 -976)">
          <path id="Rectangle-40" data-name="Rectangle" d="M10,0h8L-12,30h-8Z" transform="translate(1249 1004)" fill="#e42626"/>
        </g>
        <g transform="translate(-1004 -976)">
          <path id="Rectangle-41" data-name="Rectangle" d="M10,0h8L-12,30h-8Z" transform="translate(1249 1004)" fill="#e42626"/>
        </g>
        <g transform="translate(-990 -976)">
          <path id="Rectangle-42" data-name="Rectangle" d="M10,0h8L-12,30h-8Z" transform="translate(1249 1004)" fill="#e42626"/>
        </g>
        <g transform="translate(-976 -976)">
          <path id="Rectangle-43" data-name="Rectangle" d="M10,0h8L-12,30h-8Z" transform="translate(1249 1004)" fill="#e42626"/>
        </g>
        <g transform="translate(-962 -976)">
          <path id="Rectangle-44" data-name="Rectangle" d="M10,0h8L-12,30h-8Z" transform="translate(1249 1004)" fill="#e42626"/>
        </g>
        <g transform="translate(-948 -976)">
          <path id="Rectangle-45" data-name="Rectangle" d="M10,0h8L-12,30h-8Z" transform="translate(1249 1004)" fill="#e42626"/>
        </g>
        <g transform="translate(-934 -976)">
          <path id="Rectangle-46" data-name="Rectangle" d="M10,0h8L-12,30h-8Z" transform="translate(1249 1004)" fill="#e42626"/>
        </g>
        <g transform="translate(-920 -976)">
          <path id="Rectangle-47" data-name="Rectangle" d="M10,0h8L-12,30h-8Z" transform="translate(1249 1004)" fill="#e42626"/>
        </g>
        <g transform="translate(-906 -976)">
          <path id="Rectangle-48" data-name="Rectangle" d="M10,0h8L-12,30h-8Z" transform="translate(1249 1004)" fill="#e42626"/>
        </g>
        <g transform="translate(-1214 -948)">
          <path id="Rectangle-49" data-name="Rectangle" d="M10,0h8L-12,30h-8Z" transform="translate(1249 1004)" fill="#e42626"/>
        </g>
        <g transform="translate(-1200 -948)">
          <path id="Rectangle-50" data-name="Rectangle" d="M10,0h8L-12,30h-8Z" transform="translate(1249 1004)" fill="#e42626"/>
        </g>
        <g transform="translate(-1186 -948)">
          <path id="Rectangle-51" data-name="Rectangle" d="M10,0h8L-12,30h-8Z" transform="translate(1249 1004)" fill="#e42626"/>
        </g>
        <g transform="translate(-1172 -948)">
          <path id="Rectangle-52" data-name="Rectangle" d="M10,0h8L-12,30h-8Z" transform="translate(1249 1004)" fill="#e42626"/>
        </g>
        <g transform="translate(-1158 -948)">
          <path id="Rectangle-53" data-name="Rectangle" d="M10,0h8L-12,30h-8Z" transform="translate(1249 1004)" fill="#e42626"/>
        </g>
        <g transform="translate(-1144 -948)">
          <path id="Rectangle-54" data-name="Rectangle" d="M10,0h8L-12,30h-8Z" transform="translate(1249 1004)" fill="#e42626"/>
        </g>
        <g transform="translate(-1130 -948)">
          <path id="Rectangle-55" data-name="Rectangle" d="M10,0h8L-12,30h-8Z" transform="translate(1249 1004)" fill="#e42626"/>
        </g>
        <g transform="translate(-1116 -948)">
          <path id="Rectangle-56" data-name="Rectangle" d="M10,0h8L-12,30h-8Z" transform="translate(1249 1004)" fill="#e42626"/>
        </g>
        <g transform="translate(-1102 -948)">
          <path id="Rectangle-57" data-name="Rectangle" d="M10,0h8L-12,30h-8Z" transform="translate(1249 1004)" fill="#e42626"/>
        </g>
        <g transform="translate(-1088 -948)">
          <path id="Rectangle-58" data-name="Rectangle" d="M10,0h8L-12,30h-8Z" transform="translate(1249 1004)" fill="#e42626"/>
        </g>
        <g transform="translate(-1074 -948)">
          <path id="Rectangle-59" data-name="Rectangle" d="M10,0h8L-12,30h-8Z" transform="translate(1249 1004)" fill="#e42626"/>
        </g>
        <g transform="translate(-1060 -948)">
          <path id="Rectangle-60" data-name="Rectangle" d="M10,0h8L-12,30h-8Z" transform="translate(1249 1004)" fill="#e42626"/>
        </g>
        <g transform="translate(-1046 -948)">
          <path id="Rectangle-61" data-name="Rectangle" d="M10,0h8L-12,30h-8Z" transform="translate(1249 1004)" fill="#e42626"/>
        </g>
        <g transform="translate(-1032 -948)">
          <path id="Rectangle-62" data-name="Rectangle" d="M10,0h8L-12,30h-8Z" transform="translate(1249 1004)" fill="#e42626"/>
        </g>
        <g transform="translate(-1018 -948)">
          <path id="Rectangle-63" data-name="Rectangle" d="M10,0h8L-12,30h-8Z" transform="translate(1249 1004)" fill="#e42626"/>
        </g>
        <g transform="translate(-1004 -948)">
          <path id="Rectangle-64" data-name="Rectangle" d="M10,0h8L-12,30h-8Z" transform="translate(1249 1004)" fill="#e42626"/>
        </g>
        <g transform="translate(-990 -948)">
          <path id="Rectangle-65" data-name="Rectangle" d="M10,0h8L-12,30h-8Z" transform="translate(1249 1004)" fill="#e42626"/>
        </g>
        <g transform="translate(-976 -948)">
          <path id="Rectangle-66" data-name="Rectangle" d="M10,0h8L-12,30h-8Z" transform="translate(1249 1004)" fill="#e42626"/>
        </g>
        <g transform="translate(-962 -948)">
          <path id="Rectangle-67" data-name="Rectangle" d="M10,0h8L-12,30h-8Z" transform="translate(1249 1004)" fill="#e42626"/>
        </g>
        <g transform="translate(-948 -948)">
          <path id="Rectangle-68" data-name="Rectangle" d="M10,0h8L-12,30h-8Z" transform="translate(1249 1004)" fill="#e42626"/>
        </g>
        <g transform="translate(-934 -948)">
          <path id="Rectangle-69" data-name="Rectangle" d="M10,0h8L-12,30h-8Z" transform="translate(1249 1004)" fill="#e42626"/>
        </g>
        <g transform="translate(-920 -948)">
          <path id="Rectangle-70" data-name="Rectangle" d="M10,0h8L-12,30h-8Z" transform="translate(1249 1004)" fill="#e42626"/>
        </g>
        <g transform="translate(-906 -948)">
          <path id="Rectangle-71" data-name="Rectangle" d="M10,0h8L-12,30h-8Z" transform="translate(1249 1004)" fill="#e42626"/>
        </g>
      </g>
    </g>
    <g id="Mask_Group_2-2" data-name="Mask Group 2" transform="translate(1110.743 834.396)" clip-path="url(#clip-path-3)">
      <g id="Repeat_Grid_24" data-name="Repeat Grid 24" transform="translate(-36.243 -0.38)" clip-path="url(#clip-path-2)">
        <g transform="translate(-1214 -1004)">
          <path id="Rectangle-72" data-name="Rectangle" d="M10,0h8L-12,30h-8Z" transform="translate(1249 1004)" fill="#e42626"/>
        </g>
        <g transform="translate(-1200 -1004)">
          <path id="Rectangle-73" data-name="Rectangle" d="M10,0h8L-12,30h-8Z" transform="translate(1249 1004)" fill="#e42626"/>
        </g>
        <g transform="translate(-1186 -1004)">
          <path id="Rectangle-74" data-name="Rectangle" d="M10,0h8L-12,30h-8Z" transform="translate(1249 1004)" fill="#e42626"/>
        </g>
        <g transform="translate(-1172 -1004)">
          <path id="Rectangle-75" data-name="Rectangle" d="M10,0h8L-12,30h-8Z" transform="translate(1249 1004)" fill="#e42626"/>
        </g>
        <g transform="translate(-1158 -1004)">
          <path id="Rectangle-76" data-name="Rectangle" d="M10,0h8L-12,30h-8Z" transform="translate(1249 1004)" fill="#e42626"/>
        </g>
        <g transform="translate(-1144 -1004)">
          <path id="Rectangle-77" data-name="Rectangle" d="M10,0h8L-12,30h-8Z" transform="translate(1249 1004)" fill="#e42626"/>
        </g>
        <g transform="translate(-1130 -1004)">
          <path id="Rectangle-78" data-name="Rectangle" d="M10,0h8L-12,30h-8Z" transform="translate(1249 1004)" fill="#e42626"/>
        </g>
        <g transform="translate(-1116 -1004)">
          <path id="Rectangle-79" data-name="Rectangle" d="M10,0h8L-12,30h-8Z" transform="translate(1249 1004)" fill="#e42626"/>
        </g>
        <g transform="translate(-1102 -1004)">
          <path id="Rectangle-80" data-name="Rectangle" d="M10,0h8L-12,30h-8Z" transform="translate(1249 1004)" fill="#e42626"/>
        </g>
        <g transform="translate(-1088 -1004)">
          <path id="Rectangle-81" data-name="Rectangle" d="M10,0h8L-12,30h-8Z" transform="translate(1249 1004)" fill="#e42626"/>
        </g>
        <g transform="translate(-1074 -1004)">
          <path id="Rectangle-82" data-name="Rectangle" d="M10,0h8L-12,30h-8Z" transform="translate(1249 1004)" fill="#e42626"/>
        </g>
        <g transform="translate(-1060 -1004)">
          <path id="Rectangle-83" data-name="Rectangle" d="M10,0h8L-12,30h-8Z" transform="translate(1249 1004)" fill="#e42626"/>
        </g>
        <g transform="translate(-1046 -1004)">
          <path id="Rectangle-84" data-name="Rectangle" d="M10,0h8L-12,30h-8Z" transform="translate(1249 1004)" fill="#e42626"/>
        </g>
        <g transform="translate(-1032 -1004)">
          <path id="Rectangle-85" data-name="Rectangle" d="M10,0h8L-12,30h-8Z" transform="translate(1249 1004)" fill="#e42626"/>
        </g>
        <g transform="translate(-1018 -1004)">
          <path id="Rectangle-86" data-name="Rectangle" d="M10,0h8L-12,30h-8Z" transform="translate(1249 1004)" fill="#e42626"/>
        </g>
        <g transform="translate(-1004 -1004)">
          <path id="Rectangle-87" data-name="Rectangle" d="M10,0h8L-12,30h-8Z" transform="translate(1249 1004)" fill="#e42626"/>
        </g>
        <g transform="translate(-990 -1004)">
          <path id="Rectangle-88" data-name="Rectangle" d="M10,0h8L-12,30h-8Z" transform="translate(1249 1004)" fill="#e42626"/>
        </g>
        <g transform="translate(-976 -1004)">
          <path id="Rectangle-89" data-name="Rectangle" d="M10,0h8L-12,30h-8Z" transform="translate(1249 1004)" fill="#e42626"/>
        </g>
        <g transform="translate(-962 -1004)">
          <path id="Rectangle-90" data-name="Rectangle" d="M10,0h8L-12,30h-8Z" transform="translate(1249 1004)" fill="#e42626"/>
        </g>
        <g transform="translate(-948 -1004)">
          <path id="Rectangle-91" data-name="Rectangle" d="M10,0h8L-12,30h-8Z" transform="translate(1249 1004)" fill="#e42626"/>
        </g>
        <g transform="translate(-934 -1004)">
          <path id="Rectangle-92" data-name="Rectangle" d="M10,0h8L-12,30h-8Z" transform="translate(1249 1004)" fill="#e42626"/>
        </g>
        <g transform="translate(-920 -1004)">
          <path id="Rectangle-93" data-name="Rectangle" d="M10,0h8L-12,30h-8Z" transform="translate(1249 1004)" fill="#e42626"/>
        </g>
        <g transform="translate(-906 -1004)">
          <path id="Rectangle-94" data-name="Rectangle" d="M10,0h8L-12,30h-8Z" transform="translate(1249 1004)" fill="#e42626"/>
        </g>
        <g transform="translate(-1214 -976)">
          <path id="Rectangle-95" data-name="Rectangle" d="M10,0h8L-12,30h-8Z" transform="translate(1249 1004)" fill="#e42626"/>
        </g>
        <g transform="translate(-1200 -976)">
          <path id="Rectangle-96" data-name="Rectangle" d="M10,0h8L-12,30h-8Z" transform="translate(1249 1004)" fill="#e42626"/>
        </g>
        <g transform="translate(-1186 -976)">
          <path id="Rectangle-97" data-name="Rectangle" d="M10,0h8L-12,30h-8Z" transform="translate(1249 1004)" fill="#e42626"/>
        </g>
        <g transform="translate(-1172 -976)">
          <path id="Rectangle-98" data-name="Rectangle" d="M10,0h8L-12,30h-8Z" transform="translate(1249 1004)" fill="#e42626"/>
        </g>
        <g transform="translate(-1158 -976)">
          <path id="Rectangle-99" data-name="Rectangle" d="M10,0h8L-12,30h-8Z" transform="translate(1249 1004)" fill="#e42626"/>
        </g>
        <g transform="translate(-1144 -976)">
          <path id="Rectangle-100" data-name="Rectangle" d="M10,0h8L-12,30h-8Z" transform="translate(1249 1004)" fill="#e42626"/>
        </g>
        <g transform="translate(-1130 -976)">
          <path id="Rectangle-101" data-name="Rectangle" d="M10,0h8L-12,30h-8Z" transform="translate(1249 1004)" fill="#e42626"/>
        </g>
        <g transform="translate(-1116 -976)">
          <path id="Rectangle-102" data-name="Rectangle" d="M10,0h8L-12,30h-8Z" transform="translate(1249 1004)" fill="#e42626"/>
        </g>
        <g transform="translate(-1102 -976)">
          <path id="Rectangle-103" data-name="Rectangle" d="M10,0h8L-12,30h-8Z" transform="translate(1249 1004)" fill="#e42626"/>
        </g>
        <g transform="translate(-1088 -976)">
          <path id="Rectangle-104" data-name="Rectangle" d="M10,0h8L-12,30h-8Z" transform="translate(1249 1004)" fill="#e42626"/>
        </g>
        <g transform="translate(-1074 -976)">
          <path id="Rectangle-105" data-name="Rectangle" d="M10,0h8L-12,30h-8Z" transform="translate(1249 1004)" fill="#e42626"/>
        </g>
        <g transform="translate(-1060 -976)">
          <path id="Rectangle-106" data-name="Rectangle" d="M10,0h8L-12,30h-8Z" transform="translate(1249 1004)" fill="#e42626"/>
        </g>
        <g transform="translate(-1046 -976)">
          <path id="Rectangle-107" data-name="Rectangle" d="M10,0h8L-12,30h-8Z" transform="translate(1249 1004)" fill="#e42626"/>
        </g>
        <g transform="translate(-1032 -976)">
          <path id="Rectangle-108" data-name="Rectangle" d="M10,0h8L-12,30h-8Z" transform="translate(1249 1004)" fill="#e42626"/>
        </g>
        <g transform="translate(-1018 -976)">
          <path id="Rectangle-109" data-name="Rectangle" d="M10,0h8L-12,30h-8Z" transform="translate(1249 1004)" fill="#e42626"/>
        </g>
        <g transform="translate(-1004 -976)">
          <path id="Rectangle-110" data-name="Rectangle" d="M10,0h8L-12,30h-8Z" transform="translate(1249 1004)" fill="#e42626"/>
        </g>
        <g transform="translate(-990 -976)">
          <path id="Rectangle-111" data-name="Rectangle" d="M10,0h8L-12,30h-8Z" transform="translate(1249 1004)" fill="#e42626"/>
        </g>
        <g transform="translate(-976 -976)">
          <path id="Rectangle-112" data-name="Rectangle" d="M10,0h8L-12,30h-8Z" transform="translate(1249 1004)" fill="#e42626"/>
        </g>
        <g transform="translate(-962 -976)">
          <path id="Rectangle-113" data-name="Rectangle" d="M10,0h8L-12,30h-8Z" transform="translate(1249 1004)" fill="#e42626"/>
        </g>
        <g transform="translate(-948 -976)">
          <path id="Rectangle-114" data-name="Rectangle" d="M10,0h8L-12,30h-8Z" transform="translate(1249 1004)" fill="#e42626"/>
        </g>
        <g transform="translate(-934 -976)">
          <path id="Rectangle-115" data-name="Rectangle" d="M10,0h8L-12,30h-8Z" transform="translate(1249 1004)" fill="#e42626"/>
        </g>
        <g transform="translate(-920 -976)">
          <path id="Rectangle-116" data-name="Rectangle" d="M10,0h8L-12,30h-8Z" transform="translate(1249 1004)" fill="#e42626"/>
        </g>
        <g transform="translate(-906 -976)">
          <path id="Rectangle-117" data-name="Rectangle" d="M10,0h8L-12,30h-8Z" transform="translate(1249 1004)" fill="#e42626"/>
        </g>
        <g transform="translate(-1214 -948)">
          <path id="Rectangle-118" data-name="Rectangle" d="M10,0h8L-12,30h-8Z" transform="translate(1249 1004)" fill="#e42626"/>
        </g>
        <g transform="translate(-1200 -948)">
          <path id="Rectangle-119" data-name="Rectangle" d="M10,0h8L-12,30h-8Z" transform="translate(1249 1004)" fill="#e42626"/>
        </g>
        <g transform="translate(-1186 -948)">
          <path id="Rectangle-120" data-name="Rectangle" d="M10,0h8L-12,30h-8Z" transform="translate(1249 1004)" fill="#e42626"/>
        </g>
        <g transform="translate(-1172 -948)">
          <path id="Rectangle-121" data-name="Rectangle" d="M10,0h8L-12,30h-8Z" transform="translate(1249 1004)" fill="#e42626"/>
        </g>
        <g transform="translate(-1158 -948)">
          <path id="Rectangle-122" data-name="Rectangle" d="M10,0h8L-12,30h-8Z" transform="translate(1249 1004)" fill="#e42626"/>
        </g>
        <g transform="translate(-1144 -948)">
          <path id="Rectangle-123" data-name="Rectangle" d="M10,0h8L-12,30h-8Z" transform="translate(1249 1004)" fill="#e42626"/>
        </g>
        <g transform="translate(-1130 -948)">
          <path id="Rectangle-124" data-name="Rectangle" d="M10,0h8L-12,30h-8Z" transform="translate(1249 1004)" fill="#e42626"/>
        </g>
        <g transform="translate(-1116 -948)">
          <path id="Rectangle-125" data-name="Rectangle" d="M10,0h8L-12,30h-8Z" transform="translate(1249 1004)" fill="#e42626"/>
        </g>
        <g transform="translate(-1102 -948)">
          <path id="Rectangle-126" data-name="Rectangle" d="M10,0h8L-12,30h-8Z" transform="translate(1249 1004)" fill="#e42626"/>
        </g>
        <g transform="translate(-1088 -948)">
          <path id="Rectangle-127" data-name="Rectangle" d="M10,0h8L-12,30h-8Z" transform="translate(1249 1004)" fill="#e42626"/>
        </g>
        <g transform="translate(-1074 -948)">
          <path id="Rectangle-128" data-name="Rectangle" d="M10,0h8L-12,30h-8Z" transform="translate(1249 1004)" fill="#e42626"/>
        </g>
        <g transform="translate(-1060 -948)">
          <path id="Rectangle-129" data-name="Rectangle" d="M10,0h8L-12,30h-8Z" transform="translate(1249 1004)" fill="#e42626"/>
        </g>
        <g transform="translate(-1046 -948)">
          <path id="Rectangle-130" data-name="Rectangle" d="M10,0h8L-12,30h-8Z" transform="translate(1249 1004)" fill="#e42626"/>
        </g>
        <g transform="translate(-1032 -948)">
          <path id="Rectangle-131" data-name="Rectangle" d="M10,0h8L-12,30h-8Z" transform="translate(1249 1004)" fill="#e42626"/>
        </g>
        <g transform="translate(-1018 -948)">
          <path id="Rectangle-132" data-name="Rectangle" d="M10,0h8L-12,30h-8Z" transform="translate(1249 1004)" fill="#e42626"/>
        </g>
        <g transform="translate(-1004 -948)">
          <path id="Rectangle-133" data-name="Rectangle" d="M10,0h8L-12,30h-8Z" transform="translate(1249 1004)" fill="#e42626"/>
        </g>
        <g transform="translate(-990 -948)">
          <path id="Rectangle-134" data-name="Rectangle" d="M10,0h8L-12,30h-8Z" transform="translate(1249 1004)" fill="#e42626"/>
        </g>
        <g transform="translate(-976 -948)">
          <path id="Rectangle-135" data-name="Rectangle" d="M10,0h8L-12,30h-8Z" transform="translate(1249 1004)" fill="#e42626"/>
        </g>
        <g transform="translate(-962 -948)">
          <path id="Rectangle-136" data-name="Rectangle" d="M10,0h8L-12,30h-8Z" transform="translate(1249 1004)" fill="#e42626"/>
        </g>
        <g transform="translate(-948 -948)">
          <path id="Rectangle-137" data-name="Rectangle" d="M10,0h8L-12,30h-8Z" transform="translate(1249 1004)" fill="#e42626"/>
        </g>
        <g transform="translate(-934 -948)">
          <path id="Rectangle-138" data-name="Rectangle" d="M10,0h8L-12,30h-8Z" transform="translate(1249 1004)" fill="#e42626"/>
        </g>
        <g transform="translate(-920 -948)">
          <path id="Rectangle-139" data-name="Rectangle" d="M10,0h8L-12,30h-8Z" transform="translate(1249 1004)" fill="#e42626"/>
        </g>
        <g transform="translate(-906 -948)">
          <path id="Rectangle-140" data-name="Rectangle" d="M10,0h8L-12,30h-8Z" transform="translate(1249 1004)" fill="#e42626"/>
        </g>
      </g>
    </g>
    <text id="傳統燒機室-NO.3溫度過高事件" transform="translate(1530.176 883.999)" fill="#e42626" font-size="55" font-family="MicrosoftYaHeiUI-Bold, Microsoft YaHei UI" font-weight="700" letter-spacing="-0.05em"><tspan x="-364.523" y="0">傳統燒機室-NO.3溫度過高事件</tspan></text>
  </g>
</svg>
