<svg xmlns="http://www.w3.org/2000/svg" width="22" height="22" viewBox="0 0 22 22">
  <g id="icon_win_zoomout_b" transform="translate(-2342 -130)">
    <path id="btn" d="M0,0H22V22H0Z" transform="translate(2342 130)" opacity="0.8"/>
    <g id="big" transform="translate(1627 -287.001)">
      <path id="Path_1" data-name="Path 1" d="M.64,6.111H6.111V.617L4,2.469,1.388,0,0,1.319,2.532,3.981Z" transform="translate(715 417.001)" fill="#34a8f2"/>
      <path id="Path_1-2" data-name="Path 1" d="M5.471,0H0V5.494L2.115,3.642,4.723,6.111,6.111,4.792,3.579,2.13Z" transform="translate(730.889 432.89)" fill="#34a8f2"/>
      <path id="Path_1-3" data-name="Path 1" d="M2.469,2.12,0,4.724,1.319,6.111,3.981,3.589l2.13,1.887V0H.617Z" transform="translate(715 432.89)" fill="#34a8f2"/>
      <path id="Path_1-4" data-name="Path 1" d="M5.471,0H0V5.494L2.115,3.642,4.723,6.111,6.111,4.792,3.579,2.13Z" transform="translate(730.889 423.112) rotate(-90)" fill="#34a8f2"/>
      <g id="btn-2" data-name="btn" transform="translate(721.5 423.501)" fill="none">
        <path d="M0,0H9V9H0Z" stroke="none"/>
        <path d="M 1.5 1.500000476837158 L 1.5 7.500000476837158 L 7.5 7.500000476837158 L 7.5 1.500000476837158 L 1.5 1.500000476837158 M 0 9.5367431640625e-07 L 9 9.5367431640625e-07 L 9 9 L 0 9 L 0 9.5367431640625e-07 Z" stroke="none" fill="#34a8f2"/>
      </g>
    </g>
  </g>
</svg>
