<svg xmlns="http://www.w3.org/2000/svg" xmlns:xlink="http://www.w3.org/1999/xlink" width="560" height="54"
  viewBox="0 0 560 54">
  <defs>
    <clipPath id="clip-path">
      <rect id="Rectangle_1" data-name="Rectangle 1" width="560" height="54" transform="translate(1105 987.94)"
        fill="#fff" />
    </clipPath>
    <clipPath id="clip-path-2">
      <rect width="612.114" height="53.94" fill="none" />
    </clipPath>
  </defs>
  <g id="Mask_Group_1" data-name="Mask Group 1" transform="translate(-1105 -987.94)" clip-path="url(#clip-path)">
    <g id="Repeat_Grid_11" data-name="Repeat Grid 11" transform="translate(1094.891 988)" opacity="0.25"
      clip-path="url(#clip-path-2)">
      <g transform="translate(-1214 -1004)">
        <path id="Rectangle_1-2" data-name="Rectangle 1" d="M10,0h5L-42,56h-5Z" transform="translate(1214 1004)"
          fill="#345676" />
      </g>
      <g transform="translate(-1203 -1004)">
        <path id="Rectangle_4" data-name="Rectangle 4" d="M10,0h5L-42,56h-5Z" transform="translate(1214 1004)"
          fill="#345676" />
      </g>
      <g transform="translate(-1192 -1004)">
        <path id="Rectangle_4-2" data-name="Rectangle 4" d="M10,0h5L-42,56h-5Z" transform="translate(1214 1004)"
          fill="#345676" />
      </g>
      <g transform="translate(-1181 -1004)">
        <path id="Rectangle_4-3" data-name="Rectangle 4" d="M10,0h5L-42,56h-5Z" transform="translate(1214 1004)"
          fill="#345676" />
      </g>
      <g transform="translate(-1170 -1004)">
        <path id="Rectangle_4-4" data-name="Rectangle 4" d="M10,0h5L-42,56h-5Z" transform="translate(1214 1004)"
          fill="#345676" />
      </g>
      <g transform="translate(-1159 -1004)">
        <path id="Rectangle_4-5" data-name="Rectangle 4" d="M10,0h5L-42,56h-5Z" transform="translate(1214 1004)"
          fill="#345676" />
      </g>
      <g transform="translate(-1148 -1004)">
        <path id="Rectangle_4-6" data-name="Rectangle 4" d="M10,0h5L-42,56h-5Z" transform="translate(1214 1004)"
          fill="#345676" />
      </g>
      <g transform="translate(-1137 -1004)">
        <path id="Rectangle_4-7" data-name="Rectangle 4" d="M10,0h5L-42,56h-5Z" transform="translate(1214 1004)"
          fill="#345676" />
      </g>
      <g transform="translate(-1126 -1004)">
        <path id="Rectangle_4-8" data-name="Rectangle 4" d="M10,0h5L-42,56h-5Z" transform="translate(1214 1004)"
          fill="#345676" />
      </g>
      <g transform="translate(-1115 -1004)">
        <path id="Rectangle_4-9" data-name="Rectangle 4" d="M10,0h5L-42,56h-5Z" transform="translate(1214 1004)"
          fill="#345676" />
      </g>
      <g transform="translate(-1104 -1004)">
        <path id="Rectangle_4-10" data-name="Rectangle 4" d="M10,0h5L-42,56h-5Z" transform="translate(1214 1004)"
          fill="#345676" />
      </g>
      <g transform="translate(-1093 -1004)">
        <path id="Rectangle_4-11" data-name="Rectangle 4" d="M10,0h5L-42,56h-5Z" transform="translate(1214 1004)"
          fill="#345676" />
      </g>
      <g transform="translate(-1082 -1004)">
        <path id="Rectangle_4-12" data-name="Rectangle 4" d="M10,0h5L-42,56h-5Z" transform="translate(1214 1004)"
          fill="#345676" />
      </g>
      <g transform="translate(-1071 -1004)">
        <path id="Rectangle_4-13" data-name="Rectangle 4" d="M10,0h5L-42,56h-5Z" transform="translate(1214 1004)"
          fill="#345676" />
      </g>
      <g transform="translate(-1060 -1004)">
        <path id="Rectangle_4-14" data-name="Rectangle 4" d="M10,0h5L-42,56h-5Z" transform="translate(1214 1004)"
          fill="#345676" />
      </g>
      <g transform="translate(-1049 -1004)">
        <path id="Rectangle_4-15" data-name="Rectangle 4" d="M10,0h5L-42,56h-5Z" transform="translate(1214 1004)"
          fill="#345676" />
      </g>
      <g transform="translate(-1038 -1004)">
        <path id="Rectangle_4-16" data-name="Rectangle 4" d="M10,0h5L-42,56h-5Z" transform="translate(1214 1004)"
          fill="#345676" />
      </g>
      <g transform="translate(-1027 -1004)">
        <path id="Rectangle_4-17" data-name="Rectangle 4" d="M10,0h5L-42,56h-5Z" transform="translate(1214 1004)"
          fill="#345676" />
      </g>
      <g transform="translate(-1016 -1004)">
        <path id="Rectangle_4-18" data-name="Rectangle 4" d="M10,0h5L-42,56h-5Z" transform="translate(1214 1004)"
          fill="#345676" />
      </g>
      <g transform="translate(-1005 -1004)">
        <path id="Rectangle_4-19" data-name="Rectangle 4" d="M10,0h5L-42,56h-5Z" transform="translate(1214 1004)"
          fill="#345676" />
      </g>
      <g transform="translate(-994 -1004)">
        <path id="Rectangle_4-20" data-name="Rectangle 4" d="M10,0h5L-42,56h-5Z" transform="translate(1214 1004)"
          fill="#345676" />
      </g>
      <g transform="translate(-983 -1004)">
        <path id="Rectangle_4-21" data-name="Rectangle 4" d="M10,0h5L-42,56h-5Z" transform="translate(1214 1004)"
          fill="#345676" />
      </g>
      <g transform="translate(-972 -1004)">
        <path id="Rectangle_4-22" data-name="Rectangle 4" d="M10,0h5L-42,56h-5Z" transform="translate(1214 1004)"
          fill="#345676" />
      </g>
      <g transform="translate(-961 -1004)">
        <path id="Rectangle_4-23" data-name="Rectangle 4" d="M10,0h5L-42,56h-5Z" transform="translate(1214 1004)"
          fill="#345676" />
      </g>
      <g transform="translate(-950 -1004)">
        <path id="Rectangle_4-24" data-name="Rectangle 4" d="M10,0h5L-42,56h-5Z" transform="translate(1214 1004)"
          fill="#345676" />
      </g>
      <g transform="translate(-939 -1004)">
        <path id="Rectangle_4-25" data-name="Rectangle 4" d="M10,0h5L-42,56h-5Z" transform="translate(1214 1004)"
          fill="#345676" />
      </g>
      <g transform="translate(-928 -1004)">
        <path id="Rectangle_4-26" data-name="Rectangle 4" d="M10,0h5L-42,56h-5Z" transform="translate(1214 1004)"
          fill="#345676" />
      </g>
      <g transform="translate(-917 -1004)">
        <path id="Rectangle_4-27" data-name="Rectangle 4" d="M10,0h5L-42,56h-5Z" transform="translate(1214 1004)"
          fill="#345676" />
      </g>
      <g transform="translate(-906 -1004)">
        <path id="Rectangle_4-28" data-name="Rectangle 4" d="M10,0h5L-42,56h-5Z" transform="translate(1214 1004)"
          fill="#345676" />
      </g>
      <g transform="translate(-895 -1004)">
        <path id="Rectangle_4-29" data-name="Rectangle 4" d="M10,0h5L-42,56h-5Z" transform="translate(1214 1004)"
          fill="#345676" />
      </g>
      <g transform="translate(-884 -1004)">
        <path id="Rectangle_4-30" data-name="Rectangle 4" d="M10,0h5L-42,56h-5Z" transform="translate(1214 1004)"
          fill="#345676" />
      </g>
      <g transform="translate(-873 -1004)">
        <path id="Rectangle_4-31" data-name="Rectangle 4" d="M10,0h5L-42,56h-5Z" transform="translate(1214 1004)"
          fill="#345676" />
      </g>
      <g transform="translate(-862 -1004)">
        <path id="Rectangle_4-32" data-name="Rectangle 4" d="M10,0h5L-42,56h-5Z" transform="translate(1214 1004)"
          fill="#345676" />
      </g>
      <g transform="translate(-851 -1004)">
        <path id="Rectangle_4-33" data-name="Rectangle 4" d="M10,0h5L-42,56h-5Z" transform="translate(1214 1004)"
          fill="#345676" />
      </g>
      <g transform="translate(-840 -1004)">
        <path id="Rectangle_4-34" data-name="Rectangle 4" d="M10,0h5L-42,56h-5Z" transform="translate(1214 1004)"
          fill="#345676" />
      </g>
      <g transform="translate(-829 -1004)">
        <path id="Rectangle_4-35" data-name="Rectangle 4" d="M10,0h5L-42,56h-5Z" transform="translate(1214 1004)"
          fill="#345676" />
      </g>
      <g transform="translate(-818 -1004)">
        <path id="Rectangle_4-36" data-name="Rectangle 4" d="M10,0h5L-42,56h-5Z" transform="translate(1214 1004)"
          fill="#345676" />
      </g>
      <g transform="translate(-807 -1004)">
        <path id="Rectangle_4-37" data-name="Rectangle 4" d="M10,0h5L-42,56h-5Z" transform="translate(1214 1004)"
          fill="#345676" />
      </g>
      <g transform="translate(-796 -1004)">
        <path id="Rectangle_4-38" data-name="Rectangle 4" d="M10,0h5L-42,56h-5Z" transform="translate(1214 1004)"
          fill="#345676" />
      </g>
      <g transform="translate(-785 -1004)">
        <path id="Rectangle_4-39" data-name="Rectangle 4" d="M10,0h5L-42,56h-5Z" transform="translate(1214 1004)"
          fill="#345676" />
      </g>
      <g transform="translate(-774 -1004)">
        <path id="Rectangle_4-40" data-name="Rectangle 4" d="M10,0h5L-42,56h-5Z" transform="translate(1214 1004)"
          fill="#345676" />
      </g>
      <g transform="translate(-763 -1004)">
        <path id="Rectangle_4-41" data-name="Rectangle 4" d="M10,0h5L-42,56h-5Z" transform="translate(1214 1004)"
          fill="#345676" />
      </g>
      <g transform="translate(-752 -1004)">
        <path id="Rectangle_4-42" data-name="Rectangle 4" d="M10,0h5L-42,56h-5Z" transform="translate(1214 1004)"
          fill="#345676" />
      </g>
      <g transform="translate(-741 -1004)">
        <path id="Rectangle_4-43" data-name="Rectangle 4" d="M10,0h5L-42,56h-5Z" transform="translate(1214 1004)"
          fill="#345676" />
      </g>
      <g transform="translate(-730 -1004)">
        <path id="Rectangle_4-44" data-name="Rectangle 4" d="M10,0h5L-42,56h-5Z" transform="translate(1214 1004)"
          fill="#345676" />
      </g>
      <g transform="translate(-719 -1004)">
        <path id="Rectangle_4-45" data-name="Rectangle 4" d="M10,0h5L-42,56h-5Z" transform="translate(1214 1004)"
          fill="#345676" />
      </g>
      <g transform="translate(-708 -1004)">
        <path id="Rectangle_4-46" data-name="Rectangle 4" d="M10,0h5L-42,56h-5Z" transform="translate(1214 1004)"
          fill="#345676" />
      </g>
      <g transform="translate(-697 -1004)">
        <path id="Rectangle_4-47" data-name="Rectangle 4" d="M10,0h5L-42,56h-5Z" transform="translate(1214 1004)"
          fill="#345676" />
      </g>
      <g transform="translate(-686 -1004)">
        <path id="Rectangle_4-48" data-name="Rectangle 4" d="M10,0h5L-42,56h-5Z" transform="translate(1214 1004)"
          fill="#345676" />
      </g>
      <g transform="translate(-675 -1004)">
        <path id="Rectangle_4-49" data-name="Rectangle 4" d="M10,0h5L-42,56h-5Z" transform="translate(1214 1004)"
          fill="#345676" />
      </g>
      <g transform="translate(-664 -1004)">
        <path id="Rectangle_4-50" data-name="Rectangle 4" d="M10,0h5L-42,56h-5Z" transform="translate(1214 1004)"
          fill="#345676" />
      </g>
      <g transform="translate(-653 -1004)">
        <path id="Rectangle_4-51" data-name="Rectangle 4" d="M10,0h5L-42,56h-5Z" transform="translate(1214 1004)"
          fill="#345676" />
      </g>
      <g transform="translate(-642 -1004)">
        <path id="Rectangle_4-52" data-name="Rectangle 4" d="M10,0h5L-42,56h-5Z" transform="translate(1214 1004)"
          fill="#345676" />
      </g>
      <g transform="translate(-631 -1004)">
        <path id="Rectangle_4-53" data-name="Rectangle 4" d="M10,0h5L-42,56h-5Z" transform="translate(1214 1004)"
          fill="#345676" />
      </g>
      <g transform="translate(-620 -1004)">
        <path id="Rectangle_4-54" data-name="Rectangle 4" d="M10,0h5L-42,56h-5Z" transform="translate(1214 1004)"
          fill="#345676" />
      </g>
      <g transform="translate(-609 -1004)">
        <path id="Rectangle_4-55" data-name="Rectangle 4" d="M10,0h5L-42,56h-5Z" transform="translate(1214 1004)"
          fill="#345676" />
      </g>
    </g>
  </g>
</svg>